{
  "project_info": {
    "project_number": "843922700201",
    "project_id": "project-basicnote",
    "storage_bucket": "project-basicnote.appspot.com"
  },
  "client": [
    {
      "client_info": {
        "mobilesdk_app_id": "1:843922700201:android:98ea35816f2cb0812d36b8",
        "android_client_info": {
          "package_name": "com.note.basicnote.sticky.notes.checklist"
        }
      },
      "oauth_client": [
        {
          "client_id": "843922700201-das4ejdflegdd0tcgmmeujd5i6ijfofi.apps.googleusercontent.com",
          "client_type": 3
        }
      ],
      "api_key": [
        {
          "current_key": "AIzaSyCucnf3VRNUH5QRJEHgne3rp_GcdWO6i-c"
        }
      ],
      "services": {
        "appinvite_service": {
          "other_platform_oauth_client": [
            {
              "client_id": "843922700201-das4ejdflegdd0tcgmmeujd5i6ijfofi.apps.googleusercontent.com",
              "client_type": 3
            }
          ]
        }
      }
    }
  ],
  "configuration_version": "1"
}